<?xml version="1.0" encoding="iso-8859-1"?>
<!-- Generator: Adobe Illustrator 19.0.0, SVG Export Plug-In . SVG Version: 6.00 Build 0)  -->
<svg version="1.1" id="Capa_1" xmlns="http://www.w3.org/2000/svg" xmlns:xlink="http://www.w3.org/1999/xlink" x="0px" y="0px"
	 viewBox="0 0 512 512" style="enable-background:new 0 0 512 512;" xml:space="preserve">
<g>
	<g>
		<path style="fill: #c7c7c7" d="M447.189,134.592c-0.533-1.323-1.323-2.496-2.325-3.477L316.885,3.136c-0.981-0.981-2.176-1.771-3.477-2.325
			C312.107,0.277,310.72,0,309.333,0H96C78.357,0,64,14.357,64,32v448c0,17.643,14.357,32,32,32h320c17.643,0,32-14.357,32-32
			V138.667C448,137.28,447.723,135.893,447.189,134.592z M352,384H160c-5.888,0-10.667-4.779-10.667-10.667
			c0-5.888,4.779-10.667,10.667-10.667h192c5.888,0,10.667,4.779,10.667,10.667C362.667,379.221,357.888,384,352,384z M352,298.667
			H160c-5.888,0-10.667-4.779-10.667-10.667s4.779-10.667,10.667-10.667h192c5.888,0,10.667,4.779,10.667,10.667
			S357.888,298.667,352,298.667z M352,213.333H160c-5.888,0-10.667-4.779-10.667-10.667S154.112,192,160,192h192
			c5.888,0,10.667,4.779,10.667,10.667S357.888,213.333,352,213.333z M330.667,128C324.8,128,320,123.221,320,117.333V36.416
			L411.584,128H330.667z"/>
	</g>
</g>
<g>
</g>
<g>
</g>
<g>
</g>
<g>
</g>
<g>
</g>
<g>
</g>
<g>
</g>
<g>
</g>
<g>
</g>
<g>
</g>
<g>
</g>
<g>
</g>
<g>
</g>
<g>
</g>
<g>
</g>
</svg>
